br\com\core\setup\AppAndroid.class
br\com\core\setup\AppWeb.class
br\com\core\ftp\FtpManager.class
br\com\core\setup\AppWinium.class
br\com\core\ftp\SftpManager.class
br\com\core\setup\DriverManager.class
br\com\core\takescreenshot\TakeScreenShot.class
br\com\core\setup\AppiumService.class
br\com\core\datadriven\Excel.class
br\com\core\clipboard\ClipBoards.class
br\com\core\database\DataBases$1.class
br\com\core\files\FileManager.class
br\com\core\properties\PropertiesManager.class
br\com\core\documents\Documents.class
br\com\core\dates\DatePicker.class
br\com\core\enums\DbPlatform.class
br\com\core\report\ExtentReports.class
br\com\core\setup\AppWindows.class
br\com\core\parallel\AbstractTestNGCucumberParallelTests.class
br\com\core\integration\OpenStf.class
br\com\core\database\DataBases.class
br\com\core\setup\Drivers.class
br\com\core\strings\StringUtils.class
